voter,anomaly,checkers,True Positives,True Negatives,False Positives,False Negatives,False Positive Rate,Precision,Recall,F-Measure,FScore(2.0),Accuracy,MatthewsCorrelationCoefficient,AUC,
BEST 3,ALL,3,20.282828282828284,79.71717171717172,0.0,0.0,0.0,1.0,1.0,1.0,1.0,1.0,1.0,0.6666666666666659,
BEST 3,HALF,3,20.282828282828284,79.71717171717172,0.0,0.0,0.0,1.0,1.0,1.0,1.0,1.0,1.0,0.6666666666666659,
BEST 3,1,3,20.282828282828284,79.71717171717172,0.0,0.0,0.0,1.0,1.0,1.0,1.0,1.0,1.0,0.6666666666666659,
BEST 30,ALL,17,0.0,79.71717171717172,0.0,20.282828282828284,0.0,0.0,0.0,0.0,0.0,0.7971717171717176,0.0,0.37882819518436783,
BEST 30,HALF,17,3.242424242424242,79.71717171717172,0.0,17.04040404040404,0.0,0.9797979797979798,0.15824456822490726,0.26831829284767783,0.18923617299417397,0.82959595959596,0.35093256383219446,0.37882819518436783,
BEST 30,1,17,20.282828282828284,79.39393939393939,0.32323232323232326,0.0,0.004030421881920004,0.9844264829508979,1.0,0.9919150752123915,0.9966892853442654,0.9967676767676767,0.9901147270290723,0.37882819518436783,
BEST 10,ALL,10,0.0,79.71717171717172,0.0,20.282828282828284,0.0,0.0,0.0,0.0,0.0,0.7971717171717176,0.0,0.5104255480063902,
BEST 10,HALF,10,14.545454545454545,79.71717171717172,0.0,5.737373737373737,0.0,1.0,0.71790270077796,0.8324412011400558,0.7592076310999477,0.9426262626262627,0.8172239110182662,0.5104255480063902,
BEST 10,1,10,20.282828282828284,79.6969696969697,0.020202020202020204,0.0,2.5588577777129964E-4,0.999074074074074,1.0,0.9995260846324675,0.9998077034714966,0.9997979797979798,0.9994061783862123,0.5104255480063902,
0.9,ALL,4,18.161616161616163,79.71717171717172,0.0,2.121212121212121,0.0,1.0,0.8970574459874884,0.9436563734843986,0.9147436727293384,0.9787878787878781,0.934229269847154,0.7251803751803736,
0.9,HALF,4,20.282828282828284,79.71717171717172,0.0,0.0,0.0,1.0,1.0,1.0,1.0,1.0,1.0,0.7251803751803736,
0.9,1,4,20.282828282828284,79.71717171717172,0.0,0.0,0.0,1.0,1.0,1.0,1.0,1.0,1.0,0.7251803751803736,
FILTERED 10,ALL,10,0.0,79.71717171717172,0.0,20.282828282828284,0.0,0.0,0.0,0.0,0.0,0.7971717171717176,0.0,0.5104255480063902,
FILTERED 10,HALF,10,14.545454545454545,79.71717171717172,0.0,5.737373737373737,0.0,1.0,0.71790270077796,0.8324412011400558,0.7592076310999477,0.9426262626262627,0.8172239110182662,0.5104255480063902,
FILTERED 10,1,10,20.282828282828284,79.6969696969697,0.020202020202020204,0.0,2.5588577777129964E-4,0.999074074074074,1.0,0.9995260846324675,0.9998077034714966,0.9997979797979798,0.9994061783862123,0.5104255480063902,
