selection_strategy,checkers,ALL, HALF, 1,
BEST 3,3,0.19647324657165166,0.9823082941546047,0.9823082941546047,
BEST 30,16,0.0,0.20387084184052617,0.0,
BEST 10,10,0.0038265237123496477,0.18303116541282208,0.0,
0.9,1,0.9856452902903128,0.0,0.9856452902903128,
FILTERED 10,10,0.0,0.14555529098018316,0.9456091174415809,
