selection_strategy,checkers,ALL, HALF, 1,
BEST 3,3,0.6744464916278637,0.9993103630719392,0.9993103630719392,
BEST 30,11,0.0,0.6931163737889457,0.0457945018216487,
BEST 10,10,0.0,0.6936172425712961,0.0457945018216487,
0.9,2,1.0,1.0,1.0,
FILTERED 10,10,0.0,0.6936172425712961,0.0457945018216487,
