voter,anomaly,checkers,True Positives,True Negatives,False Positives,False Negatives,False Positive Rate,Precision,Recall,F-Measure,FScore(2.0),Accuracy,MatthewsCorrelationCoefficient,AUC,
BEST 3,ALL,3,20.464646464646464,79.53535353535354,0.0,0.0,0.0,1.0,1.0,1.0,1.0,1.0,1.0,0.7758245997159332,
BEST 3,HALF,3,20.464646464646464,79.53535353535354,0.0,0.0,0.0,1.0,1.0,1.0,1.0,1.0,1.0,0.7758245997159332,
BEST 3,1,3,20.464646464646464,79.53535353535354,0.0,0.0,0.0,1.0,1.0,1.0,1.0,1.0,1.0,0.7758245997159332,
BEST 30,ALL,30,9.525252525252526,79.53535353535354,0.0,10.93939393939394,0.0,1.0,0.46647753613937515,0.6266678702224059,0.5189398435321383,0.8906060606060606,0.6356530357770371,0.4518760931118202,
BEST 30,HALF,30,20.464646464646464,79.53535353535354,0.0,0.0,0.0,1.0,1.0,1.0,1.0,1.0,1.0,0.4518760931118202,
BEST 30,1,30,20.464646464646464,76.04040404040404,3.494949494949495,0.0,0.043341040861612085,0.8730060778470621,1.0,0.9287683593719211,0.9680734702133085,0.9650505050505048,0.9135839186272177,0.4518760931118202,
BEST 10,ALL,10,20.464646464646464,79.53535353535354,0.0,0.0,0.0,1.0,1.0,1.0,1.0,1.0,1.0,0.7327473799147791,
BEST 10,HALF,10,20.464646464646464,79.53535353535354,0.0,0.0,0.0,1.0,1.0,1.0,1.0,1.0,1.0,0.7327473799147791,
BEST 10,1,10,20.464646464646464,79.53535353535354,0.0,0.0,0.0,1.0,1.0,1.0,1.0,1.0,1.0,0.7327473799147791,
0.9,ALL,19,20.151515151515152,79.53535353535354,0.0,0.31313131313131315,0.0,1.0,0.9840336539265486,0.9917902094472425,0.9870844725044677,0.9968686868686866,0.9900175572212414,0.46439871977636404,
0.9,HALF,19,20.464646464646464,79.53535353535354,0.0,0.0,0.0,1.0,1.0,1.0,1.0,1.0,1.0,0.46439871977636404,
0.9,1,19,20.464646464646464,78.20202020202021,1.3333333333333333,0.0,0.01611840290871647,0.9626218216125191,1.0,0.9775336796893775,0.9887261527734007,0.9866666666666664,0.9730088778898293,0.46439871977636404,
FILTERED 10,ALL,10,20.464646464646464,79.53535353535354,0.0,0.0,0.0,1.0,1.0,1.0,1.0,1.0,1.0,0.3000000000000005,
FILTERED 10,HALF,10,20.464646464646464,79.53535353535354,0.0,0.0,0.0,1.0,1.0,1.0,1.0,1.0,1.0,0.3000000000000005,
FILTERED 10,1,10,20.464646464646464,79.11111111111111,0.42424242424242425,0.0,0.004991087344028521,0.9925571504518874,1.0,0.9941077441077442,0.9963739963739963,0.9957575757575757,0.9935845014104305,0.3000000000000005,
