voter,anomaly,checkers,True Positives,True Negatives,False Positives,False Negatives,False Positive Rate,Precision,Recall,F-Measure,FScore(2.0),Accuracy,MatthewsCorrelationCoefficient,AUC,
BEST 3,ALL,3,20.464646464646464,79.53535353535354,0.0,0.0,0.0,1.0,1.0,1.0,1.0,1.0,1.0,0.6666666666666659,
BEST 3,HALF,3,20.464646464646464,79.53535353535354,0.0,0.0,0.0,1.0,1.0,1.0,1.0,1.0,1.0,0.6666666666666659,
BEST 3,1,3,20.464646464646464,79.53535353535354,0.0,0.0,0.0,1.0,1.0,1.0,1.0,1.0,1.0,0.6666666666666659,
BEST 30,ALL,30,0.0,79.53535353535354,0.0,20.464646464646464,0.0,0.0,0.0,0.0,0.0,0.7953535353535355,0.0,0.4976509379509372,
BEST 30,HALF,30,10.585858585858587,79.53535353535354,0.0,9.878787878787879,0.0,1.0,0.5179150131655874,0.679757057981696,0.572177237970979,0.9012121212121215,0.6775327416013288,0.4976509379509372,
BEST 30,1,30,20.464646464646464,0.0,79.53535353535354,0.0,1.0,0.20464646464646474,1.0,0.338685419303044,0.5594684467843738,0.20464646464646474,0.0,0.4976509379509372,
BEST 10,ALL,10,0.0,79.53535353535354,0.0,20.464646464646464,0.0,0.0,0.0,0.0,0.0,0.7953535353535355,0.0,0.7486740740740742,
BEST 10,HALF,10,20.464646464646464,79.53535353535354,0.0,0.0,0.0,1.0,1.0,1.0,1.0,1.0,1.0,0.7486740740740742,
BEST 10,1,10,20.464646464646464,79.53535353535354,0.0,0.0,0.0,1.0,1.0,1.0,1.0,1.0,1.0,0.7486740740740742,
0.9,ALL,10,0.0,79.53535353535354,0.0,20.464646464646464,0.0,0.0,0.0,0.0,0.0,0.7953535353535355,0.0,0.7486740740740742,
0.9,HALF,10,20.464646464646464,79.53535353535354,0.0,0.0,0.0,1.0,1.0,1.0,1.0,1.0,1.0,0.7486740740740742,
0.9,1,10,20.464646464646464,79.53535353535354,0.0,0.0,0.0,1.0,1.0,1.0,1.0,1.0,1.0,0.7486740740740742,
FILTERED 10,ALL,10,0.98989898989899,79.53535353535354,0.0,19.474747474747474,0.0,0.98989898989899,0.04948508742725307,0.09414897692772684,0.0610737498341666,0.8052525252525252,0.19799456843675325,0.6208770562770544,
FILTERED 10,HALF,10,20.464646464646464,79.53535353535354,0.0,0.0,0.0,1.0,1.0,1.0,1.0,1.0,1.0,0.6208770562770544,
FILTERED 10,1,10,20.464646464646464,79.51515151515152,0.020202020202020204,0.0,2.4975024975024975E-4,0.9989666485830169,1.0,0.9994694418936843,0.9997842960805925,0.9997979797979798,0.9993543461446305,0.6208770562770544,
