selection_strategy,checkers,ALL, HALF, 1,
BEST 3,3,1.0,1.0,1.0,
BEST 30,30,0.0,0.6775327416013288,0.0,
BEST 10,10,0.0,1.0,1.0,
0.9,10,0.0,1.0,1.0,
FILTERED 10,10,0.19799456843675325,1.0,0.9993543461446305,
