voter,anomaly,checkers,True Positives,True Negatives,False Positives,False Negatives,False Positive Rate,Precision,Recall,F-Measure,FScore(2.0),Accuracy,MatthewsCorrelationCoefficient,AUC,
BEST 3,ALL,3,20.343434343434343,79.65656565656566,0.0,0.0,0.0,1.0,1.0,1.0,1.0,1.0,1.0,0.0,
BEST 3,HALF,3,20.343434343434343,79.65656565656566,0.0,0.0,0.0,1.0,1.0,1.0,1.0,1.0,1.0,0.0,
BEST 3,1,3,20.343434343434343,79.65656565656566,0.0,0.0,0.0,1.0,1.0,1.0,1.0,1.0,1.0,0.0,
BEST 30,ALL,30,0.0,79.65656565656566,0.0,20.343434343434343,0.0,0.0,0.0,0.0,0.0,0.7965656565656568,0.0,0.21383763825623248,
BEST 30,HALF,30,3.4444444444444446,79.4040404040404,0.25252525252525254,16.8989898989899,0.0031917864410814616,0.9104289649744194,0.1686322382209813,0.26049981456379007,0.19559206512186383,0.828484848484848,0.3231996379270979,0.21383763825623248,
BEST 30,1,30,20.343434343434343,46.85858585858586,32.7979797979798,0.0,0.4111028194047786,0.39392178698063474,1.0,0.5597130081082933,0.7558163313968582,0.6720202020202022,0.4807954247852689,0.21383763825623248,
BEST 10,ALL,10,0.9191919191919192,79.65656565656566,0.0,19.424242424242426,0.0,0.9191919191919192,0.04646991090039833,0.08837233706774447,0.05734577847721508,0.8057575757575761,0.18521414933159783,0.13189008925742893,
BEST 10,HALF,10,20.303030303030305,79.63636363636364,0.020202020202020204,0.04040404040404041,2.535155476331947E-4,0.9989801864801864,0.997979797979798,0.9983537674872274,0.9981034235420201,0.9993939393939394,0.9980750153215658,0.13189008925742893,
BEST 10,1,10,20.343434343434343,76.60606060606061,3.0505050505050506,0.0,0.038111891497735036,0.8691921396237142,1.0,0.9286652637573185,0.9697617426584414,0.969494949494949,0.9139803670342095,0.13189008925742893,
0.9,ALL,5,18.636363636363637,79.65656565656566,0.0,1.707070707070707,0.0,0.9393939393939394,0.9188423921757255,0.9251977907150319,0.9209415461802548,0.982929292929293,0.9254657564846756,0.19913419913419944,
0.9,HALF,5,20.343434343434343,79.65656565656566,0.0,0.0,0.0,1.0,1.0,1.0,1.0,1.0,1.0,0.19913419913419944,
0.9,1,5,20.343434343434343,79.65656565656566,0.0,0.0,0.0,1.0,1.0,1.0,1.0,1.0,1.0,0.19913419913419944,
FILTERED 10,ALL,10,0.13131313131313133,79.65656565656566,0.0,20.21212121212121,0.0,0.13131313131313133,0.006694894383854927,0.012728147538473168,0.008261175460464421,0.797878787878788,0.026614709425630635,0.21877975279848624,
FILTERED 10,HALF,10,5.646464646464646,79.28282828282828,0.37373737373737376,14.696969696969697,0.004694978368784803,0.9344643011309676,0.2764793465497503,0.41269753956095884,0.31793988767694853,0.8492929292929285,0.4496668494348754,0.21877975279848624,
FILTERED 10,1,10,20.343434343434343,70.01010101010101,9.646464646464647,0.0,0.12058105244543492,0.6915341817443467,1.0,0.8111337633602386,0.912024660437206,0.9035353535353534,0.7784257183303415,0.21877975279848624,
